…
error distribution is different between the sets, but var is the same.

# How can I bootstrap

write a function to draw a bootstrap sample based on a dataframe size =
1 , size what you are taking, 1 is 100%

``` r
# w/o replacement
sim_df_nonconst %>% 
  sample_frac(size = 1, replace = FALSE) %>% 
  arrange(x)
```

    ## # A tibble: 250 x 3
    ##         x  error      y
    ##     <dbl>  <dbl>  <dbl>
    ##  1 -1.89   1.62  -2.04 
    ##  2 -1.29   1.40  -0.454
    ##  3 -1.21  -0.781 -2.43 
    ##  4 -1.00   0.832 -0.169
    ##  5 -0.989 -1.97  -2.93 
    ##  6 -0.914 -0.908 -1.65 
    ##  7 -0.805  0.292 -0.123
    ##  8 -0.733  0.447  0.248
    ##  9 -0.665 -0.544 -0.539
    ## 10 -0.641 -0.416 -0.338
    ## # … with 240 more rows

``` r
# w replacement
sim_df_nonconst %>% 
  sample_frac(size = 1, replace = TRUE) %>% 
  arrange(x)
```

    ## # A tibble: 250 x 3
    ##         x   error      y
    ##     <dbl>   <dbl>  <dbl>
    ##  1 -1.89   1.62   -2.04 
    ##  2 -1.21  -0.781  -2.43 
    ##  3 -1.00   0.832  -0.169
    ##  4 -0.914 -0.908  -1.65 
    ##  5 -0.914 -0.908  -1.65 
    ##  6 -0.914 -0.908  -1.65 
    ##  7 -0.805  0.292  -0.123
    ##  8 -0.665 -0.544  -0.539
    ##  9 -0.536  0.0227  0.413
    ## 10 -0.536  0.0227  0.413
    ## # … with 240 more rows
…
sample with replacement - gives you a diff sample of 250 people from the
same sample, because some of the people will be picked more than once.

``` r
boot_straps = 
  tibble(
    strap_number = 1:1000,
    strap_sample = rerun(1000, boot_sample(sim_df_nonconst))
  )

boot_straps
```

    ## # A tibble: 1,000 x 2
    ##    strap_number strap_sample      
    ##           <int> <list>            
    ##  1            1 <tibble [250 × 3]>
    ##  2            2 <tibble [250 × 3]>
    ##  3            3 <tibble [250 × 3]>
    ##  4            4 <tibble [250 × 3]>
    ##  5            5 <tibble [250 × 3]>
    ##  6            6 <tibble [250 × 3]>
    ##  7            7 <tibble [250 × 3]>
    ##  8            8 <tibble [250 × 3]>
    ##  9            9 <tibble [250 × 3]>
    ## 10           10 <tibble [250 × 3]>
    ## # … with 990 more rows
…
