…
Less memory intensive

``` r
cv_df = 
  crossv_mc(nonlin_df, 100) 
```

Build a model in “train” and test in “test” for 100 resampling?

``` r
cv_df %>% pull(train) %>% .[[1]] %>% as_tibble
```

    ## # A tibble: 79 x 3
    ##       id       x      y
    ##    <int>   <dbl>  <dbl>
    ##  1     2 0.729   -0.174
    ##  2     3 0.693   -0.754
    ##  3     4 0.212    1.63 
    ##  4     5 0.229    0.808
    ##  5     6 0.00350  0.156
    ##  6     7 0.306    0.431
    ##  7     9 0.0639   0.439
    ##  8    12 0.972   -2.99 
    ##  9    13 0.703   -0.574
    ## 10    14 0.984   -3.25 
    ## # … with 69 more rows
…
``` r
cv_df =
  cv_df %>% 
  mutate(
    train = map(train, as_tibble),
    test = map(test, as_tibble))
```

``` r
 cv_df %>% 
  mutate(linear_mod  = map(train, ~lm(y ~ x, data = .x)),
         rmse_linear = map2_dbl(.x = linear_mod, .y = test, ~rmse(.x, .y)))
```

    ## # A tibble: 100 x 5
    ##    train             test              .id   linear_mod rmse_linear
    ##    <list>            <list>            <chr> <list>           <dbl>
    ##  1 <tibble [79 × 3]> <tibble [21 × 3]> 001   <lm>             0.769
    ##  2 <tibble [79 × 3]> <tibble [21 × 3]> 002   <lm>             0.979
    ##  3 <tibble [79 × 3]> <tibble [21 × 3]> 003   <lm>             0.883
    ##  4 <tibble [79 × 3]> <tibble [21 × 3]> 004   <lm>             0.796
    ##  5 <tibble [79 × 3]> <tibble [21 × 3]> 005   <lm>             0.763
    ##  6 <tibble [79 × 3]> <tibble [21 × 3]> 006   <lm>             0.820
    ##  7 <tibble [79 × 3]> <tibble [21 × 3]> 007   <lm>             0.747
    ##  8 <tibble [79 × 3]> <tibble [21 × 3]> 008   <lm>             0.881
    ##  9 <tibble [79 × 3]> <tibble [21 × 3]> 009   <lm>             0.853
    ## 10 <tibble [79 × 3]> <tibble [21 × 3]> 010   <lm>             0.731
    ## # … with 90 more rows
…
